Data Rectangling with jq | Boettiger Group
…
Using purrr

gh_flat <- gh_repos %>% flatten()  # abandon nested structure and hope we didn't need it

gh_tibble <- tibble(
  name =     gh_flat %>% map_chr("name"),
  issues =   gh_flat %>% map_int("open_issues_count"),
  wiki =     gh_flat %>% map_lgl("has_wiki"),
  homepage = gh_flat %>% map_chr("homepage", .default = ""),
  owner =    gh_flat %>% map_chr(c("owner", "login"))
)

gh_tibble

A tibble: 176 x 5

name issues wiki homepage owner

1 after 0 TRUE "" gaborcsardi
2 argufy 6 TRUE "" gaborcsardi
3 ask 4 TRUE "" gaborcsardi
4 baseimports 0 TRUE "" gaborcsardi
5 citest 0 TRUE "" gaborcsardi
6 clisymbols 0 TRUE "" gaborcsardi
7 cmaker 0 TRUE "" gaborcsardi
8 cmark 0 TRUE "" gaborcsardi
9 conditions 0 TRUE "" gaborcsardi
10 crayon 7 TRUE "" gaborcsardi
# … with 166 more rows
…
